vendor_id, pickup_datetime, dropoff_datetime, passenger_count, trip_distance, pickup_longitude, pickup_latitude, rate_code, store_and_fwd_flag, dropoff_longitude, dropoff_latitude, payment_type, fare_amount, surcharge, mta_tax, tip_amount, tolls_amount, total_amount

CMT,2014-01-09 20:45:25,2014-01-09 20:52:31,1,0.69999999999999996,-73.994770000000003,40.736828000000003,1,N,-73.982226999999995,40.731789999999997,CRD,6.5,0.5,0.5,1.3999999999999999,0,8.9000000000000004
CMT,2014-01-09 20:46:12,2014-01-09 20:55:12,1,1.3999999999999999,-73.982392000000004,40.773381999999998,1,N,-73.960448999999997,40.763995000000001,CRD,8.5,0.5,0.5,1.8999999999999999,0,11.4
CMT,2014-01-09 20:44:47,2014-01-09 20:59:46,2,2.2999999999999998,-73.988569999999996,40.739406000000002,1,N,-73.986626000000001,40.765217,CRD,11.5,0.5,0.5,1.5,0,14
CMT,2014-01-09 20:44:57,2014-01-09 20:51:40,1,1.7,-73.960212999999996,40.770463999999997,1,N,-73.979862999999995,40.777050000000003,CRD,7.5,0.5,0.5,1.7,0,10.199999999999999
CMT,2014-01-09 20:47:09,2014-01-09 20:53:32,1,0.90000000000000002,-73.995371000000006,40.717247999999998,1,N,-73.984367000000006,40.720523999999997,CRD,6,0.5,0.5,1.75,0,8.75
CMT,2014-01-09 20:45:07,2014-01-09 20:51:01,1,0.90000000000000002,-73.983811000000003,40.749654999999997,1,N,-73.989746999999994,40.756574999999998,CRD,6,0.5,0.5,1.3999999999999999,0,8.4000000000000004
CMT,2014-01-09 20:44:04,2014-01-09 21:05:45,1,3.6000000000000001,-73.984138000000002,40.726317000000002,1,N,-73.962868999999998,40.758443,CRD,16.5,0.5,0.5,5.25,0,22.75
CMT,2014-01-09 20:43:23,2014-01-09 20:52:07,1,2.1000000000000001,-73.979906,40.745849999999997,1,N,-73.959090000000003,40.773639000000003,CRD,9,0.5,0.5,2,0,12
CMT,2014-01-09 20:43:04,2014-01-09 20:54:29,1,3.3999999999999999,-73.981147000000007,40.758918000000001,1,N,-73.942509999999999,40.785975000000001,CRD,12,0.5,0.5,2.6000000000000001,0,15.6
CMT,2014-01-09 20:50:23,2014-01-09 20:58:10,1,2.2999999999999998,-73.955192999999994,40.765467999999998,1,N,-73.979022999999998,40.740577999999999,CRD,9,0.5,0.5,1,0,11
CMT,2014-01-09 20:51:36,2014-01-09 21:15:07,1,9.5,-73.885274999999993,40.773048000000003,1,N,-73.980879000000002,40.777383999999998,CRD,28.5,0.5,0.5,6.96,5.3300000000000001,41.789999999999999
CMT,2014-01-09 20:48:04,2014-01-09 21:01:37,1,3.2999999999999998,-73.991782000000001,40.748911,1,N,-73.988359000000003,40.714205,CRD,12.5,0.5,0.5,4.0499999999999998,0,17.550000000000001
CMT,2014-01-09 20:47:49,2014-01-09 20:56:11,2,1.8,-73.965716999999998,40.758674999999997,1,N,-73.984059000000002,40.737448000000001,CRD,8.5,0.5,0.5,1.8999999999999999,0,11.4
CMT,2014-01-09 20:48:47,2014-01-09 20:56:52,2,1.3999999999999999,-73.977008999999995,40.751620000000003,1,N,-73.982642999999996,40.766573999999999,CRD,7.5,0.5,0.5,1.7,0,10.199999999999999
CMT,2014-01-09 20:47:51,2014-01-09 21:02:31,3,2.6000000000000001,-73.977655999999996,40.753680000000003,1,N,-73.952248999999995,40.777676,CRD,12.5,0.5,0.5,1,0,14.5
CMT,2014-01-09 20:49:49,2014-01-09 21:20:38,1,11.199999999999999,-73.788265999999993,40.647542000000001,1,N,-73.949224999999998,40.652700000000003,CRD,35.5,0.5,0.5,0,0,36.5
CMT,2014-01-09 16:51:35,2014-01-09 17:00:17,1,1.7,-74.007503,40.725991999999998,1,N,-73.988181999999995,40.734583000000001,CRD,8.5,1,0.5,2,0,12
CMT,2014-11-09 20:55:07,2014-11-09 21:02:21,1,1.6000000000000001,-73.977205999999995,40.787728999999999,1,N,-73.980675000000005,40.765917999999999,CRD,7.5,0.5,0.5,1,0,9.5
CMT,2014-11-09 22:00:55,2014-11-09 22:17:13,1,4.0999999999999996,-73.993544999999997,40.721628000000003,1,N,-73.981382999999994,40.672668000000002,CRD,16,0.5,0.5,3.3999999999999999,0,20.399999999999999
CMT,2014-11-09 22:00:59,2014-11-09 22:04:58,1,1.2,-73.995918000000003,40.749408000000003,1,N,-74.002685,40.730519000000001,CRD,6,0.5,0.5,2.1000000000000001,0,9.0999999999999996
CMT,2014-11-09 22:03:13,2014-11-09 22:11:40,2,1.7,-73.973192999999995,40.785200000000003,1,N,-73.960205999999999,40.770246,CRD,8.5,0.5,0.5,1,0,10.5
CMT,2014-11-09 22:02:16,2014-11-09 22:13:57,1,2.2000000000000002,-73.993789000000007,40.747140999999999,1,N,-73.977118000000004,40.726354999999998,CRD,10.5,0.5,0.5,1.5,0,13
CMT,2014-11-09 22:01:40,2014-11-09 22:10:19,1,1.6000000000000001,-73.981121999999999,40.782015999999999,1,N,-73.975520000000003,40.762807000000002,CRD,8.5,0.5,0.5,2.3700000000000001,0,11.869999999999999
CMT,2014-11-09 22:01:07,2014-11-09 22:10:42,1,2.2999999999999998,-73.987504999999999,40.760911,1,N,-73.984492000000003,40.785753,CRD,9.5,0.5,0.5,2.1000000000000001,0,12.6
CMT,2014-11-09 22:01:51,2014-11-09 22:10:09,2,2,-73.973879999999994,40.758228000000003,1,N,-73.949613999999997,40.772589000000004,CRD,9,0.5,0.5,2,0,12
CMT,2014-11-09 22:02:37,2014-11-09 22:04:45,1,0.59999999999999998,-73.961231999999995,40.7742,1,N,-73.955866999999998,40.782176999999997,CRD,4,0.5,0.5,1,0,6
CMT,2014-11-09 17:24:53,2014-11-09 17:27:53,1,0.80000000000000004,-73.981785000000002,40.732458999999999,1,N,-73.974191000000005,40.742972999999999,CRD,5,1,0.5,1.3,0,7.7999999999999998
CMT,2014-11-09 17:29:10,2014-11-09 17:38:41,1,1.7,-73.969549000000001,40.79813,1,N,-73.981084999999993,40.775112999999997,CRD,9,1,0.5,1,0,11.5
CMT,2014-11-09 17:25:24,2014-11-09 17:34:27,1,2,-73.969583,40.766171999999997,1,N,-73.978268,40.786529999999999,CRD,8.5,1,0.5,1.5,0,11.5
CMT,2014-11-09 17:27:05,2014-11-09 17:52:42,1,2.7999999999999998,-73.958851999999993,40.768273000000001,1,N,-73.992707999999993,40.749958999999997,CRD,16.5,1,0.5,3.6000000000000001,0,21.600000000000001
CMT,2014-11-09 17:23:44,2014-11-09 17:39:30,2,3.1000000000000001,-74.010357999999997,40.711080000000003,1,N,-73.995554999999996,40.749417000000001,CRD,13.5,1,0.5,3,0,18
CMT,2014-11-09 17:23:00,2014-11-09 17:27:00,1,1.1000000000000001,-74.007632999999998,40.727091000000001,1,N,-74.001193000000001,40.741590000000002,CRD,5.5,1,0.5,1,0,8
CMT,2014-11-09 17:26:31,2014-11-09 17:30:44,2,0.5,-73.988960000000006,40.744802999999997,1,N,-73.984183000000002,40.746167,CRD,4.5,1,0.5,1,0,7